20211101062_R_FİNAL_
…
İlçe sutunu çıkartıldı ve satır toplamları bulundu

a=X7_vdym_ilce_baznda_hanelerin_yllk_tatil_tercihleri %>% 
   select(-İlçe) 

Toplam_d=rowSums(a)

Satır toplamları Toplam sutunu olarak eklendi

a$Toplam<-Toplam_d
a

# A tibble: 39 × 10
   `Hiç tatil yapmıyorum` Kıyı kesimlerinde eğlenceye y…¹ Doğa ve tabiat tatil…²
                    <dbl>                           <dbl>                  <dbl>
 1                     74                               5                      0
 2                    185                              23                     33
 3                    188                              76                     37
 4                    138                              90                     26
 5                    185                             139                     52
 6                    151                              75                     82
 7                      0                              47                     65
 8                    125                             101                     40
 9                      0                              68                     26
10                      0                              60                     62
# ℹ 29 more rows
# ℹ abbreviated names: ¹​`Kıyı kesimlerinde eğlenceye yönelik tatiller`,
#   ²​`Doğa ve tabiat tatilleri (Kamp, doğa vb.)`
# ℹ 7 more variables: `Termal/Kaplıca tatilleri` <dbl>,
#   `Kültürel tatiller (Antik kent, ören yeri, farklı ülke şehir/mutfak kültürleri vb.)` <dbl>,
#   `Deniz turu tatili (Gemi turu, tekne gezileri vb.)` <dbl>,
#   `Memleket/akraba tatili` <dbl>, Diğer <dbl>, …
…
